{
  "project_info": {
    "project_number": "360718832814",
    "project_id": "sunny-day-1502263423958"
  },
  "client": [
    {
      "client_info": {
        "mobilesdk_app_id": "1:360718832814:android:a55ebb1825565500",
        "android_client_info": {
          "package_name": "com.anadea.svv.sunnyday"
        }
      },
      "oauth_client": [
        {
          "client_id": "360718832814-e1gkof4dpmp3jhe3456h2uk9f8g7ijvd.apps.googleusercontent.com",
          "client_type": 3
        }
      ],
      "api_key": [
        {
          "current_key": "AIzaSyB3Th-h5oD5ZiIUO9HuAy79cl9BhP62-pM"
        }
      ],
      "services": {
        "analytics_service": {
          "status": 2,
          "analytics_property": {
            "tracking_id": "UA-88245015-2"
          }
        },
        "appinvite_service": {
          "status": 1,
          "other_platform_oauth_client": []
        },
        "ads_service": {
          "status": 1
        }
      }
    }
  ],
  "configuration_version": "1"
}